Process "/home/david/Projects/rst2pdf_py2/bin/rst2pdf" started on Sat Jun  6 07:24:58 2015

        /home/david/Projects/rst2pdf_py2/bin/rst2pdf --date-invariant
        -v test_issue_226.txt -s test_issue_226.style -o
        /home/david/Projects/rst2pdf_py2/rst2pdf/tests/output/test_issue_226.pdf


* [INFO] createpdf.py:1572 Importing extension module 'vectorpdf'
* [INFO] languages.py:39 Language 'en_US' not supported by Docutils, using 'en' instead.
* [INFO] styles.py:82 Using stylesheets: test_issue_226.style
* [INFO] styles.py:110 FontPath:['/home/david/Projects/rst2pdf_py2/rst2pdf/fonts', '.']
* [INFO] styles.py:111 StylePath:['/home/david/Projects/rst2pdf_py2/rst2pdf/styles', '/home/david/.rst2pdf/styles', '.']
* [INFO] findfonts.py:270 Trying to embed Bitstream Charter Italic
* [INFO] findfonts.py:287 Registering font: <reportlab.pdfbase.pdfmetrics.EmbeddedType1Face instance at 0x7f7da4efc710> from CharterBT-Italic
* [INFO] findfonts.py:287 Registering font: <reportlab.pdfbase.pdfmetrics.EmbeddedType1Face instance at 0x7f7da4f0fb90> from CharterBT-Italic
* [INFO] findfonts.py:287 Registering font: <reportlab.pdfbase.pdfmetrics.EmbeddedType1Face instance at 0x7f7da4eee5f0> from CharterBT-Italic
* [INFO] findfonts.py:287 Registering font: <reportlab.pdfbase.pdfmetrics.EmbeddedType1Face instance at 0x7f7da4eb8560> from CharterBT-Italic
* [INFO] findfonts.py:300 Embedding as ['CharterBT-Italic', 'CharterBT-Italic', 'CharterBT-Italic', 'CharterBT-Italic']
* [INFO] findfonts.py:270 Trying to embed Bitstream Charter Oblique
* [INFO] findfonts.py:287 Registering font: <reportlab.pdfbase.pdfmetrics.EmbeddedType1Face instance at 0x7f7da4eb8e18> from CharterBT-Italic
* [INFO] findfonts.py:287 Registering font: <reportlab.pdfbase.pdfmetrics.EmbeddedType1Face instance at 0x7f7da4eb8dd0> from CharterBT-Italic
* [INFO] findfonts.py:287 Registering font: <reportlab.pdfbase.pdfmetrics.EmbeddedType1Face instance at 0x7f7da4eb8d88> from CharterBT-Italic
* [INFO] findfonts.py:287 Registering font: <reportlab.pdfbase.pdfmetrics.EmbeddedType1Face instance at 0x7f7da4eb8cf8> from CharterBT-Italic
* [INFO] findfonts.py:300 Embedding as ['CharterBT-Italic', 'CharterBT-Italic', 'CharterBT-Italic', 'CharterBT-Italic']
* [INFO] languages.py:39 Language 'en_US' not supported by Docutils, using 'en' instead.
* [INFO] createpdf.py:651 Starting build
* [INFO] createpdf.py:1112 Page 1 [1]

Program /home/david/Projects/rst2pdf_py2/bin/rst2pdf exit code: PASS (0)   elapsed time: 00.3 seconds

Validity of file test_issue_226.pdf checksum '75ae7e0265117a292b485c86519ae90f' is good.
